                                                                Queue
                            -----------------------------------------------------------------------------
                           |                                                                             |
 -------------------       |  -------------------        -------------------        -------------------  |      -------------------   -------------------
|                   |      | |                   |      |                   |      |                   | |     |                   | |                   |
|      Person       | -----|>|      Person       | ---> |      Person       | ---> |      Person       |-|---> |      Person       | | Ticketing Counter |
|                   |      | |                   |      |                   |      |                   | |     |                   | |                   |
 -------------------       |  -------------------        -------------------        -------------------  |      -------------------   -------------------
                           |                                                                             |
                            -----------------------------------------------------------------------------
                  Enqueuing or                                                                        Dequeuing or
                     adding                                                                             removing

A Queue follows the First-in-First-out principle (F.I.F.O.)